{
    "version": 2,
    "builds": [
      {
        "src": "/service/entryPoint.js",
        "use": "@vercel/node"
      }
    ],
    "routes": [
      {
        "src": "/(.*)",
        "dest": "/service/entryPoint.js"
      }
    ]
  }